^G:\USUN SE POTEM\MILIONERZY\MILIONERZY\ALLEGRO.CPP
/c /I"G:\USUN SE POTEM\MILIONERZY\PACKAGES\ALLEGRO.5.2.8\BUILD\NATIVE\INCLUDE\\" /I"G:\USUN SE POTEM\MILIONERZY\PACKAGES\ALLEGRODEPS.1.13.0\BUILD\NATIVE\\INCLUDE\\" /ZI /JMC /nologo /W3 /WX- /diagnostics:column /sdl /Od /Oy- /D WIN32 /D _DEBUG /D _CONSOLE /D _UNICODE /D UNICODE /Gm- /EHsc /RTC1 /MDd /GS /fp:precise /permissive- /Zc:wchar_t /Zc:forScope /Zc:inline /Fo"DEBUG\\" /Fd"DEBUG\VC142.PDB" /external:W3 /Gd /TP /analyze- /FC G:\USUN SE POTEM\MILIONERZY\MILIONERZY\ALLEGRO.CPP
^G:\USUN SE POTEM\MILIONERZY\MILIONERZY\MILIONERZY.CPP
/c /I"G:\USUN SE POTEM\MILIONERZY\PACKAGES\ALLEGRO.5.2.8\BUILD\NATIVE\INCLUDE\\" /I"G:\USUN SE POTEM\MILIONERZY\PACKAGES\ALLEGRODEPS.1.13.0\BUILD\NATIVE\\INCLUDE\\" /ZI /JMC /nologo /W3 /WX- /diagnostics:column /sdl /Od /Oy- /D WIN32 /D _DEBUG /D _CONSOLE /D _UNICODE /D UNICODE /Gm- /EHsc /RTC1 /MDd /GS /fp:precise /permissive- /Zc:wchar_t /Zc:forScope /Zc:inline /Fo"DEBUG\\" /Fd"DEBUG\VC142.PDB" /external:W3 /Gd /TP /analyze- /FC G:\USUN SE POTEM\MILIONERZY\MILIONERZY\MILIONERZY.CPP
