^G:\USUN SE POTEM\MILIONERZY\MILIONERZY\ALLEGRO.CPP
G:\USUN SE POTEM\MILIONERZY\MILIONERZY\ALLEGRO.H
C:\PROGRAM FILES (X86)\MICROSOFT VISUAL STUDIO\2019\COMMUNITY\VC\TOOLS\MSVC\14.29.30133\INCLUDE\IOSTREAM
C:\PROGRAM FILES (X86)\MICROSOFT VISUAL STUDIO\2019\COMMUNITY\VC\TOOLS\MSVC\14.29.30133\INCLUDE\YVALS_CORE.H
C:\PROGRAM FILES (X86)\MICROSOFT VISUAL STUDIO\2019\COMMUNITY\VC\TOOLS\MSVC\14.29.30133\INCLUDE\VCRUNTIME.H
C:\PROGRAM FILES (X86)\MICROSOFT VISUAL STUDIO\2019\COMMUNITY\VC\TOOLS\MSVC\14.29.30133\INCLUDE\SAL.H
C:\PROGRAM FILES (X86)\MICROSOFT VISUAL STUDIO\2019\COMMUNITY\VC\TOOLS\MSVC\14.29.30133\INCLUDE\CONCURRENCYSAL.H
C:\PROGRAM FILES (X86)\MICROSOFT VISUAL STUDIO\2019\COMMUNITY\VC\TOOLS\MSVC\14.29.30133\INCLUDE\VADEFS.H
C:\PROGRAM FILES (X86)\MICROSOFT VISUAL STUDIO\2019\COMMUNITY\VC\TOOLS\MSVC\14.29.30133\INCLUDE\XKEYCHECK.H
C:\PROGRAM FILES (X86)\MICROSOFT VISUAL STUDIO\2019\COMMUNITY\VC\TOOLS\MSVC\14.29.30133\INCLUDE\ISTREAM
C:\PROGRAM FILES (X86)\MICROSOFT VISUAL STUDIO\2019\COMMUNITY\VC\TOOLS\MSVC\14.29.30133\INCLUDE\OSTREAM
C:\PROGRAM FILES (X86)\MICROSOFT VISUAL STUDIO\2019\COMMUNITY\VC\TOOLS\MSVC\14.29.30133\INCLUDE\IOS
C:\PROGRAM FILES (X86)\MICROSOFT VISUAL STUDIO\2019\COMMUNITY\VC\TOOLS\MSVC\14.29.30133\INCLUDE\XLOCNUM
C:\PROGRAM FILES (X86)\MICROSOFT VISUAL STUDIO\2019\COMMUNITY\VC\TOOLS\MSVC\14.29.30133\INCLUDE\CLIMITS
C:\PROGRAM FILES (X86)\MICROSOFT VISUAL STUDIO\2019\COMMUNITY\VC\TOOLS\MSVC\14.29.30133\INCLUDE\LIMITS.H
C:\PROGRAM FILES (X86)\MICROSOFT VISUAL STUDIO\2019\COMMUNITY\VC\TOOLS\MSVC\14.29.30133\INCLUDE\CMATH
C:\PROGRAM FILES (X86)\MICROSOFT VISUAL STUDIO\2019\COMMUNITY\VC\TOOLS\MSVC\14.29.30133\INCLUDE\YVALS.H
C:\PROGRAM FILES (X86)\WINDOWS KITS\10\INCLUDE\10.0.19041.0\UCRT\CRTDBG.H
C:\PROGRAM FILES (X86)\WINDOWS KITS\10\INCLUDE\10.0.19041.0\UCRT\CORECRT.H
C:\PROGRAM FILES (X86)\MICROSOFT VISUAL STUDIO\2019\COMMUNITY\VC\TOOLS\MSVC\14.29.30133\INCLUDE\VCRUNTIME_NEW_DEBUG.H
C:\PROGRAM FILES (X86)\MICROSOFT VISUAL STUDIO\2019\COMMUNITY\VC\TOOLS\MSVC\14.29.30133\INCLUDE\VCRUNTIME_NEW.H
C:\PROGRAM FILES (X86)\MICROSOFT VISUAL STUDIO\2019\COMMUNITY\VC\TOOLS\MSVC\14.29.30133\INCLUDE\CRTDEFS.H
C:\PROGRAM FILES (X86)\MICROSOFT VISUAL STUDIO\2019\COMMUNITY\VC\TOOLS\MSVC\14.29.30133\INCLUDE\USE_ANSI.H
C:\PROGRAM FILES (X86)\MICROSOFT VISUAL STUDIO\2019\COMMUNITY\VC\TOOLS\MSVC\14.29.30133\INCLUDE\CSTDLIB
C:\PROGRAM FILES (X86)\WINDOWS KITS\10\INCLUDE\10.0.19041.0\UCRT\MATH.H
C:\PROGRAM FILES (X86)\WINDOWS KITS\10\INCLUDE\10.0.19041.0\UCRT\CORECRT_MATH.H
C:\PROGRAM FILES (X86)\WINDOWS KITS\10\INCLUDE\10.0.19041.0\UCRT\STDLIB.H
C:\PROGRAM FILES (X86)\WINDOWS KITS\10\INCLUDE\10.0.19041.0\UCRT\CORECRT_MALLOC.H
C:\PROGRAM FILES (X86)\WINDOWS KITS\10\INCLUDE\10.0.19041.0\UCRT\CORECRT_SEARCH.H
C:\PROGRAM FILES (X86)\WINDOWS KITS\10\INCLUDE\10.0.19041.0\UCRT\STDDEF.H
C:\PROGRAM FILES (X86)\WINDOWS KITS\10\INCLUDE\10.0.19041.0\UCRT\CORECRT_WSTDLIB.H
C:\PROGRAM FILES (X86)\MICROSOFT VISUAL STUDIO\2019\COMMUNITY\VC\TOOLS\MSVC\14.29.30133\INCLUDE\XTR1COMMON
C:\PROGRAM FILES (X86)\MICROSOFT VISUAL STUDIO\2019\COMMUNITY\VC\TOOLS\MSVC\14.29.30133\INCLUDE\INTRIN0.H
C:\PROGRAM FILES (X86)\MICROSOFT VISUAL STUDIO\2019\COMMUNITY\VC\TOOLS\MSVC\14.29.30133\INCLUDE\INTRIN0.INL.H
C:\PROGRAM FILES (X86)\MICROSOFT VISUAL STUDIO\2019\COMMUNITY\VC\TOOLS\MSVC\14.29.30133\INCLUDE\CSTDIO
C:\PROGRAM FILES (X86)\WINDOWS KITS\10\INCLUDE\10.0.19041.0\UCRT\STDIO.H
C:\PROGRAM FILES (X86)\WINDOWS KITS\10\INCLUDE\10.0.19041.0\UCRT\CORECRT_WSTDIO.H
C:\PROGRAM FILES (X86)\WINDOWS KITS\10\INCLUDE\10.0.19041.0\UCRT\CORECRT_STDIO_CONFIG.H
C:\PROGRAM FILES (X86)\MICROSOFT VISUAL STUDIO\2019\COMMUNITY\VC\TOOLS\MSVC\14.29.30133\INCLUDE\ITERATOR
C:\PROGRAM FILES (X86)\MICROSOFT VISUAL STUDIO\2019\COMMUNITY\VC\TOOLS\MSVC\14.29.30133\INCLUDE\IOSFWD
C:\PROGRAM FILES (X86)\MICROSOFT VISUAL STUDIO\2019\COMMUNITY\VC\TOOLS\MSVC\14.29.30133\INCLUDE\CSTRING
C:\PROGRAM FILES (X86)\WINDOWS KITS\10\INCLUDE\10.0.19041.0\UCRT\STRING.H
C:\PROGRAM FILES (X86)\WINDOWS KITS\10\INCLUDE\10.0.19041.0\UCRT\CORECRT_MEMORY.H
C:\PROGRAM FILES (X86)\WINDOWS KITS\10\INCLUDE\10.0.19041.0\UCRT\CORECRT_MEMCPY_S.H
C:\PROGRAM FILES (X86)\WINDOWS KITS\10\INCLUDE\10.0.19041.0\UCRT\ERRNO.H
C:\PROGRAM FILES (X86)\MICROSOFT VISUAL STUDIO\2019\COMMUNITY\VC\TOOLS\MSVC\14.29.30133\INCLUDE\VCRUNTIME_STRING.H
C:\PROGRAM FILES (X86)\WINDOWS KITS\10\INCLUDE\10.0.19041.0\UCRT\CORECRT_WSTRING.H
C:\PROGRAM FILES (X86)\MICROSOFT VISUAL STUDIO\2019\COMMUNITY\VC\TOOLS\MSVC\14.29.30133\INCLUDE\CWCHAR
C:\PROGRAM FILES (X86)\WINDOWS KITS\10\INCLUDE\10.0.19041.0\UCRT\WCHAR.H
C:\PROGRAM FILES (X86)\WINDOWS KITS\10\INCLUDE\10.0.19041.0\UCRT\CORECRT_WCONIO.H
C:\PROGRAM FILES (X86)\WINDOWS KITS\10\INCLUDE\10.0.19041.0\UCRT\CORECRT_WCTYPE.H
C:\PROGRAM FILES (X86)\WINDOWS KITS\10\INCLUDE\10.0.19041.0\UCRT\CORECRT_WDIRECT.H
C:\PROGRAM FILES (X86)\WINDOWS KITS\10\INCLUDE\10.0.19041.0\UCRT\CORECRT_WIO.H
C:\PROGRAM FILES (X86)\WINDOWS KITS\10\INCLUDE\10.0.19041.0\UCRT\CORECRT_SHARE.H
C:\PROGRAM FILES (X86)\WINDOWS KITS\10\INCLUDE\10.0.19041.0\UCRT\CORECRT_WPROCESS.H
C:\PROGRAM FILES (X86)\WINDOWS KITS\10\INCLUDE\10.0.19041.0\UCRT\CORECRT_WTIME.H
C:\PROGRAM FILES (X86)\WINDOWS KITS\10\INCLUDE\10.0.19041.0\UCRT\SYS\STAT.H
C:\PROGRAM FILES (X86)\WINDOWS KITS\10\INCLUDE\10.0.19041.0\UCRT\SYS\TYPES.H
C:\PROGRAM FILES (X86)\MICROSOFT VISUAL STUDIO\2019\COMMUNITY\VC\TOOLS\MSVC\14.29.30133\INCLUDE\XSTDDEF
C:\PROGRAM FILES (X86)\MICROSOFT VISUAL STUDIO\2019\COMMUNITY\VC\TOOLS\MSVC\14.29.30133\INCLUDE\CSTDDEF
C:\PROGRAM FILES (X86)\MICROSOFT VISUAL STUDIO\2019\COMMUNITY\VC\TOOLS\MSVC\14.29.30133\INCLUDE\INITIALIZER_LIST
C:\PROGRAM FILES (X86)\MICROSOFT VISUAL STUDIO\2019\COMMUNITY\VC\TOOLS\MSVC\14.29.30133\INCLUDE\XUTILITY
C:\PROGRAM FILES (X86)\MICROSOFT VISUAL STUDIO\2019\COMMUNITY\VC\TOOLS\MSVC\14.29.30133\INCLUDE\UTILITY
C:\PROGRAM FILES (X86)\MICROSOFT VISUAL STUDIO\2019\COMMUNITY\VC\TOOLS\MSVC\14.29.30133\INCLUDE\TYPE_TRAITS
C:\PROGRAM FILES (X86)\MICROSOFT VISUAL STUDIO\2019\COMMUNITY\VC\TOOLS\MSVC\14.29.30133\INCLUDE\CSTDINT
C:\PROGRAM FILES (X86)\MICROSOFT VISUAL STUDIO\2019\COMMUNITY\VC\TOOLS\MSVC\14.29.30133\INCLUDE\STDINT.H
C:\PROGRAM FILES (X86)\MICROSOFT VISUAL STUDIO\2019\COMMUNITY\VC\TOOLS\MSVC\14.29.30133\INCLUDE\STREAMBUF
C:\PROGRAM FILES (X86)\MICROSOFT VISUAL STUDIO\2019\COMMUNITY\VC\TOOLS\MSVC\14.29.30133\INCLUDE\XIOSBASE
C:\PROGRAM FILES (X86)\WINDOWS KITS\10\INCLUDE\10.0.19041.0\UCRT\SHARE.H
C:\PROGRAM FILES (X86)\MICROSOFT VISUAL STUDIO\2019\COMMUNITY\VC\TOOLS\MSVC\14.29.30133\INCLUDE\SYSTEM_ERROR
C:\PROGRAM FILES (X86)\MICROSOFT VISUAL STUDIO\2019\COMMUNITY\VC\TOOLS\MSVC\14.29.30133\INCLUDE\__MSVC_SYSTEM_ERROR_ABI.HPP
C:\PROGRAM FILES (X86)\MICROSOFT VISUAL STUDIO\2019\COMMUNITY\VC\TOOLS\MSVC\14.29.30133\INCLUDE\CERRNO
C:\PROGRAM FILES (X86)\MICROSOFT VISUAL STUDIO\2019\COMMUNITY\VC\TOOLS\MSVC\14.29.30133\INCLUDE\STDEXCEPT
C:\PROGRAM FILES (X86)\MICROSOFT VISUAL STUDIO\2019\COMMUNITY\VC\TOOLS\MSVC\14.29.30133\INCLUDE\EXCEPTION
C:\PROGRAM FILES (X86)\WINDOWS KITS\10\INCLUDE\10.0.19041.0\UCRT\MALLOC.H
C:\PROGRAM FILES (X86)\MICROSOFT VISUAL STUDIO\2019\COMMUNITY\VC\TOOLS\MSVC\14.29.30133\INCLUDE\VCRUNTIME_EXCEPTION.H
C:\PROGRAM FILES (X86)\MICROSOFT VISUAL STUDIO\2019\COMMUNITY\VC\TOOLS\MSVC\14.29.30133\INCLUDE\EH.H
C:\PROGRAM FILES (X86)\WINDOWS KITS\10\INCLUDE\10.0.19041.0\UCRT\CORECRT_TERMINATE.H
C:\PROGRAM FILES (X86)\MICROSOFT VISUAL STUDIO\2019\COMMUNITY\VC\TOOLS\MSVC\14.29.30133\INCLUDE\XSTRING
C:\PROGRAM FILES (X86)\MICROSOFT VISUAL STUDIO\2019\COMMUNITY\VC\TOOLS\MSVC\14.29.30133\INCLUDE\XMEMORY
C:\PROGRAM FILES (X86)\MICROSOFT VISUAL STUDIO\2019\COMMUNITY\VC\TOOLS\MSVC\14.29.30133\INCLUDE\LIMITS
C:\PROGRAM FILES (X86)\MICROSOFT VISUAL STUDIO\2019\COMMUNITY\VC\TOOLS\MSVC\14.29.30133\INCLUDE\CFLOAT
C:\PROGRAM FILES (X86)\WINDOWS KITS\10\INCLUDE\10.0.19041.0\UCRT\FLOAT.H
C:\PROGRAM FILES (X86)\MICROSOFT VISUAL STUDIO\2019\COMMUNITY\VC\TOOLS\MSVC\14.29.30133\INCLUDE\ISA_AVAILABILITY.H
C:\PROGRAM FILES (X86)\MICROSOFT VISUAL STUDIO\2019\COMMUNITY\VC\TOOLS\MSVC\14.29.30133\INCLUDE\NEW
C:\PROGRAM FILES (X86)\MICROSOFT VISUAL STUDIO\2019\COMMUNITY\VC\TOOLS\MSVC\14.29.30133\INCLUDE\XATOMIC.H
C:\PROGRAM FILES (X86)\MICROSOFT VISUAL STUDIO\2019\COMMUNITY\VC\TOOLS\MSVC\14.29.30133\INCLUDE\XCALL_ONCE.H
C:\PROGRAM FILES (X86)\MICROSOFT VISUAL STUDIO\2019\COMMUNITY\VC\TOOLS\MSVC\14.29.30133\INCLUDE\XERRC.H
C:\PROGRAM FILES (X86)\MICROSOFT VISUAL STUDIO\2019\COMMUNITY\VC\TOOLS\MSVC\14.29.30133\INCLUDE\ATOMIC
C:\PROGRAM FILES (X86)\MICROSOFT VISUAL STUDIO\2019\COMMUNITY\VC\TOOLS\MSVC\14.29.30133\INCLUDE\XTHREADS.H
C:\PROGRAM FILES (X86)\MICROSOFT VISUAL STUDIO\2019\COMMUNITY\VC\TOOLS\MSVC\14.29.30133\INCLUDE\XTIMEC.H
C:\PROGRAM FILES (X86)\MICROSOFT VISUAL STUDIO\2019\COMMUNITY\VC\TOOLS\MSVC\14.29.30133\INCLUDE\CTIME
C:\PROGRAM FILES (X86)\WINDOWS KITS\10\INCLUDE\10.0.19041.0\UCRT\TIME.H
C:\PROGRAM FILES (X86)\MICROSOFT VISUAL STUDIO\2019\COMMUNITY\VC\TOOLS\MSVC\14.29.30133\INCLUDE\XLOCALE
C:\PROGRAM FILES (X86)\MICROSOFT VISUAL STUDIO\2019\COMMUNITY\VC\TOOLS\MSVC\14.29.30133\INCLUDE\MEMORY
C:\PROGRAM FILES (X86)\MICROSOFT VISUAL STUDIO\2019\COMMUNITY\VC\TOOLS\MSVC\14.29.30133\INCLUDE\TYPEINFO
C:\PROGRAM FILES (X86)\MICROSOFT VISUAL STUDIO\2019\COMMUNITY\VC\TOOLS\MSVC\14.29.30133\INCLUDE\VCRUNTIME_TYPEINFO.H
C:\PROGRAM FILES (X86)\MICROSOFT VISUAL STUDIO\2019\COMMUNITY\VC\TOOLS\MSVC\14.29.30133\INCLUDE\XFACET
C:\PROGRAM FILES (X86)\MICROSOFT VISUAL STUDIO\2019\COMMUNITY\VC\TOOLS\MSVC\14.29.30133\INCLUDE\XLOCINFO
C:\PROGRAM FILES (X86)\MICROSOFT VISUAL STUDIO\2019\COMMUNITY\VC\TOOLS\MSVC\14.29.30133\INCLUDE\XLOCINFO.H
C:\PROGRAM FILES (X86)\MICROSOFT VISUAL STUDIO\2019\COMMUNITY\VC\TOOLS\MSVC\14.29.30133\INCLUDE\CCTYPE
C:\PROGRAM FILES (X86)\WINDOWS KITS\10\INCLUDE\10.0.19041.0\UCRT\CTYPE.H
C:\PROGRAM FILES (X86)\MICROSOFT VISUAL STUDIO\2019\COMMUNITY\VC\TOOLS\MSVC\14.29.30133\INCLUDE\CLOCALE
C:\PROGRAM FILES (X86)\WINDOWS KITS\10\INCLUDE\10.0.19041.0\UCRT\LOCALE.H
C:\PROGRAM FILES (X86)\MICROSOFT VISUAL STUDIO\2019\COMMUNITY\VC\TOOLS\MSVC\14.29.30133\INCLUDE\FSTREAM
C:\PROGRAM FILES (X86)\MICROSOFT VISUAL STUDIO\2019\COMMUNITY\VC\TOOLS\MSVC\14.29.30133\INCLUDE\STRING
G:\USUN SE POTEM\MILIONERZY\PACKAGES\ALLEGRO.5.2.8\BUILD\NATIVE\INCLUDE\ALLEGRO5\ALLEGRO.H
G:\USUN SE POTEM\MILIONERZY\PACKAGES\ALLEGRO.5.2.8\BUILD\NATIVE\INCLUDE\ALLEGRO5\BASE.H
C:\PROGRAM FILES (X86)\MICROSOFT VISUAL STUDIO\2019\COMMUNITY\VC\TOOLS\MSVC\14.29.30133\INCLUDE\STDARG.H
G:\USUN SE POTEM\MILIONERZY\PACKAGES\ALLEGRO.5.2.8\BUILD\NATIVE\INCLUDE\ALLEGRO5\INTERNAL\ALCONFIG.H
G:\USUN SE POTEM\MILIONERZY\PACKAGES\ALLEGRO.5.2.8\BUILD\NATIVE\INCLUDE\ALLEGRO5\PLATFORM\ALPLATF.H
G:\USUN SE POTEM\MILIONERZY\PACKAGES\ALLEGRO.5.2.8\BUILD\NATIVE\INCLUDE\ALLEGRO5\PLATFORM\ALMSVC.H
C:\PROGRAM FILES (X86)\WINDOWS KITS\10\INCLUDE\10.0.19041.0\UCRT\IO.H
C:\PROGRAM FILES (X86)\WINDOWS KITS\10\INCLUDE\10.0.19041.0\UCRT\CORECRT_IO.H
C:\PROGRAM FILES (X86)\WINDOWS KITS\10\INCLUDE\10.0.19041.0\UCRT\FCNTL.H
C:\PROGRAM FILES (X86)\WINDOWS KITS\10\INCLUDE\10.0.19041.0\UCRT\DIRECT.H
G:\USUN SE POTEM\MILIONERZY\PACKAGES\ALLEGRO.5.2.8\BUILD\NATIVE\INCLUDE\ALLEGRO5\PLATFORM\ASTDINT.H
C:\PROGRAM FILES (X86)\WINDOWS KITS\10\INCLUDE\10.0.19041.0\UCRT\INTTYPES.H
G:\USUN SE POTEM\MILIONERZY\PACKAGES\ALLEGRO.5.2.8\BUILD\NATIVE\INCLUDE\ALLEGRO5\PLATFORM\ASTDBOOL.H
G:\USUN SE POTEM\MILIONERZY\PACKAGES\ALLEGRO.5.2.8\BUILD\NATIVE\INCLUDE\ALLEGRO5\ALTIME.H
G:\USUN SE POTEM\MILIONERZY\PACKAGES\ALLEGRO.5.2.8\BUILD\NATIVE\INCLUDE\ALLEGRO5\BITMAP.H
G:\USUN SE POTEM\MILIONERZY\PACKAGES\ALLEGRO.5.2.8\BUILD\NATIVE\INCLUDE\ALLEGRO5\COLOR.H
G:\USUN SE POTEM\MILIONERZY\PACKAGES\ALLEGRO.5.2.8\BUILD\NATIVE\INCLUDE\ALLEGRO5\BITMAP_DRAW.H
G:\USUN SE POTEM\MILIONERZY\PACKAGES\ALLEGRO.5.2.8\BUILD\NATIVE\INCLUDE\ALLEGRO5\BITMAP_IO.H
G:\USUN SE POTEM\MILIONERZY\PACKAGES\ALLEGRO.5.2.8\BUILD\NATIVE\INCLUDE\ALLEGRO5\FILE.H
G:\USUN SE POTEM\MILIONERZY\PACKAGES\ALLEGRO.5.2.8\BUILD\NATIVE\INCLUDE\ALLEGRO5\PATH.H
G:\USUN SE POTEM\MILIONERZY\PACKAGES\ALLEGRO.5.2.8\BUILD\NATIVE\INCLUDE\ALLEGRO5\UTF8.H
G:\USUN SE POTEM\MILIONERZY\PACKAGES\ALLEGRO.5.2.8\BUILD\NATIVE\INCLUDE\ALLEGRO5\BITMAP_LOCK.H
G:\USUN SE POTEM\MILIONERZY\PACKAGES\ALLEGRO.5.2.8\BUILD\NATIVE\INCLUDE\ALLEGRO5\BLENDER.H
G:\USUN SE POTEM\MILIONERZY\PACKAGES\ALLEGRO.5.2.8\BUILD\NATIVE\INCLUDE\ALLEGRO5\CLIPBOARD.H
G:\USUN SE POTEM\MILIONERZY\PACKAGES\ALLEGRO.5.2.8\BUILD\NATIVE\INCLUDE\ALLEGRO5\DISPLAY.H
G:\USUN SE POTEM\MILIONERZY\PACKAGES\ALLEGRO.5.2.8\BUILD\NATIVE\INCLUDE\ALLEGRO5\EVENTS.H
G:\USUN SE POTEM\MILIONERZY\PACKAGES\ALLEGRO.5.2.8\BUILD\NATIVE\INCLUDE\ALLEGRO5\CONFIG.H
G:\USUN SE POTEM\MILIONERZY\PACKAGES\ALLEGRO.5.2.8\BUILD\NATIVE\INCLUDE\ALLEGRO5\CPU.H
G:\USUN SE POTEM\MILIONERZY\PACKAGES\ALLEGRO.5.2.8\BUILD\NATIVE\INCLUDE\ALLEGRO5\DEBUG.H
C:\PROGRAM FILES (X86)\WINDOWS KITS\10\INCLUDE\10.0.19041.0\UCRT\ASSERT.H
G:\USUN SE POTEM\MILIONERZY\PACKAGES\ALLEGRO.5.2.8\BUILD\NATIVE\INCLUDE\ALLEGRO5\DRAWING.H
G:\USUN SE POTEM\MILIONERZY\PACKAGES\ALLEGRO.5.2.8\BUILD\NATIVE\INCLUDE\ALLEGRO5\ERROR.H
G:\USUN SE POTEM\MILIONERZY\PACKAGES\ALLEGRO.5.2.8\BUILD\NATIVE\INCLUDE\ALLEGRO5\FIXED.H
G:\USUN SE POTEM\MILIONERZY\PACKAGES\ALLEGRO.5.2.8\BUILD\NATIVE\INCLUDE\ALLEGRO5\FMATHS.H
G:\USUN SE POTEM\MILIONERZY\PACKAGES\ALLEGRO.5.2.8\BUILD\NATIVE\INCLUDE\ALLEGRO5\INLINE\FMATHS.INL
G:\USUN SE POTEM\MILIONERZY\PACKAGES\ALLEGRO.5.2.8\BUILD\NATIVE\INCLUDE\ALLEGRO5\FSHOOK.H
G:\USUN SE POTEM\MILIONERZY\PACKAGES\ALLEGRO.5.2.8\BUILD\NATIVE\INCLUDE\ALLEGRO5\FULLSCREEN_MODE.H
G:\USUN SE POTEM\MILIONERZY\PACKAGES\ALLEGRO.5.2.8\BUILD\NATIVE\INCLUDE\ALLEGRO5\HAPTIC.H
G:\USUN SE POTEM\MILIONERZY\PACKAGES\ALLEGRO.5.2.8\BUILD\NATIVE\INCLUDE\ALLEGRO5\JOYSTICK.H
G:\USUN SE POTEM\MILIONERZY\PACKAGES\ALLEGRO.5.2.8\BUILD\NATIVE\INCLUDE\ALLEGRO5\KEYBOARD.H
G:\USUN SE POTEM\MILIONERZY\PACKAGES\ALLEGRO.5.2.8\BUILD\NATIVE\INCLUDE\ALLEGRO5\KEYCODES.H
G:\USUN SE POTEM\MILIONERZY\PACKAGES\ALLEGRO.5.2.8\BUILD\NATIVE\INCLUDE\ALLEGRO5\MOUSE.H
G:\USUN SE POTEM\MILIONERZY\PACKAGES\ALLEGRO.5.2.8\BUILD\NATIVE\INCLUDE\ALLEGRO5\TOUCH_INPUT.H
G:\USUN SE POTEM\MILIONERZY\PACKAGES\ALLEGRO.5.2.8\BUILD\NATIVE\INCLUDE\ALLEGRO5\MEMORY.H
G:\USUN SE POTEM\MILIONERZY\PACKAGES\ALLEGRO.5.2.8\BUILD\NATIVE\INCLUDE\ALLEGRO5\MONITOR.H
G:\USUN SE POTEM\MILIONERZY\PACKAGES\ALLEGRO.5.2.8\BUILD\NATIVE\INCLUDE\ALLEGRO5\MOUSE_CURSOR.H
G:\USUN SE POTEM\MILIONERZY\PACKAGES\ALLEGRO.5.2.8\BUILD\NATIVE\INCLUDE\ALLEGRO5\RENDER_STATE.H
G:\USUN SE POTEM\MILIONERZY\PACKAGES\ALLEGRO.5.2.8\BUILD\NATIVE\INCLUDE\ALLEGRO5\SHADER.H
G:\USUN SE POTEM\MILIONERZY\PACKAGES\ALLEGRO.5.2.8\BUILD\NATIVE\INCLUDE\ALLEGRO5\TRANSFORMATIONS.H
G:\USUN SE POTEM\MILIONERZY\PACKAGES\ALLEGRO.5.2.8\BUILD\NATIVE\INCLUDE\ALLEGRO5\SYSTEM.H
G:\USUN SE POTEM\MILIONERZY\PACKAGES\ALLEGRO.5.2.8\BUILD\NATIVE\INCLUDE\ALLEGRO5\THREADS.H
G:\USUN SE POTEM\MILIONERZY\PACKAGES\ALLEGRO.5.2.8\BUILD\NATIVE\INCLUDE\ALLEGRO5\TIMER.H
G:\USUN SE POTEM\MILIONERZY\PACKAGES\ALLEGRO.5.2.8\BUILD\NATIVE\INCLUDE\ALLEGRO5\TLS.H
G:\USUN SE POTEM\MILIONERZY\PACKAGES\ALLEGRO.5.2.8\BUILD\NATIVE\INCLUDE\ALLEGRO5\ALCOMPAT.H
G:\USUN SE POTEM\MILIONERZY\PACKAGES\ALLEGRO.5.2.8\BUILD\NATIVE\INCLUDE\ALLEGRO5\PLATFORM\ALWIN.H
G:\USUN SE POTEM\MILIONERZY\PACKAGES\ALLEGRO.5.2.8\BUILD\NATIVE\INCLUDE\ALLEGRO5\ALLEGRO_FONT.H
G:\USUN SE POTEM\MILIONERZY\PACKAGES\ALLEGRO.5.2.8\BUILD\NATIVE\INCLUDE\ALLEGRO5\ALLEGRO_TTF.H
G:\USUN SE POTEM\MILIONERZY\PACKAGES\ALLEGRO.5.2.8\BUILD\NATIVE\INCLUDE\ALLEGRO5\ALLEGRO_IMAGE.H
^G:\USUN SE POTEM\MILIONERZY\MILIONERZY\MILIONERZY.CPP
G:\USUN SE POTEM\MILIONERZY\MILIONERZY\ALLEGRO.H
C:\PROGRAM FILES (X86)\MICROSOFT VISUAL STUDIO\2019\COMMUNITY\VC\TOOLS\MSVC\14.29.30133\INCLUDE\IOSTREAM
C:\PROGRAM FILES (X86)\MICROSOFT VISUAL STUDIO\2019\COMMUNITY\VC\TOOLS\MSVC\14.29.30133\INCLUDE\YVALS_CORE.H
C:\PROGRAM FILES (X86)\MICROSOFT VISUAL STUDIO\2019\COMMUNITY\VC\TOOLS\MSVC\14.29.30133\INCLUDE\VCRUNTIME.H
C:\PROGRAM FILES (X86)\MICROSOFT VISUAL STUDIO\2019\COMMUNITY\VC\TOOLS\MSVC\14.29.30133\INCLUDE\SAL.H
C:\PROGRAM FILES (X86)\MICROSOFT VISUAL STUDIO\2019\COMMUNITY\VC\TOOLS\MSVC\14.29.30133\INCLUDE\CONCURRENCYSAL.H
C:\PROGRAM FILES (X86)\MICROSOFT VISUAL STUDIO\2019\COMMUNITY\VC\TOOLS\MSVC\14.29.30133\INCLUDE\VADEFS.H
C:\PROGRAM FILES (X86)\MICROSOFT VISUAL STUDIO\2019\COMMUNITY\VC\TOOLS\MSVC\14.29.30133\INCLUDE\XKEYCHECK.H
C:\PROGRAM FILES (X86)\MICROSOFT VISUAL STUDIO\2019\COMMUNITY\VC\TOOLS\MSVC\14.29.30133\INCLUDE\ISTREAM
C:\PROGRAM FILES (X86)\MICROSOFT VISUAL STUDIO\2019\COMMUNITY\VC\TOOLS\MSVC\14.29.30133\INCLUDE\OSTREAM
C:\PROGRAM FILES (X86)\MICROSOFT VISUAL STUDIO\2019\COMMUNITY\VC\TOOLS\MSVC\14.29.30133\INCLUDE\IOS
C:\PROGRAM FILES (X86)\MICROSOFT VISUAL STUDIO\2019\COMMUNITY\VC\TOOLS\MSVC\14.29.30133\INCLUDE\XLOCNUM
C:\PROGRAM FILES (X86)\MICROSOFT VISUAL STUDIO\2019\COMMUNITY\VC\TOOLS\MSVC\14.29.30133\INCLUDE\CLIMITS
C:\PROGRAM FILES (X86)\MICROSOFT VISUAL STUDIO\2019\COMMUNITY\VC\TOOLS\MSVC\14.29.30133\INCLUDE\LIMITS.H
C:\PROGRAM FILES (X86)\MICROSOFT VISUAL STUDIO\2019\COMMUNITY\VC\TOOLS\MSVC\14.29.30133\INCLUDE\CMATH
C:\PROGRAM FILES (X86)\MICROSOFT VISUAL STUDIO\2019\COMMUNITY\VC\TOOLS\MSVC\14.29.30133\INCLUDE\YVALS.H
C:\PROGRAM FILES (X86)\WINDOWS KITS\10\INCLUDE\10.0.19041.0\UCRT\CRTDBG.H
C:\PROGRAM FILES (X86)\WINDOWS KITS\10\INCLUDE\10.0.19041.0\UCRT\CORECRT.H
C:\PROGRAM FILES (X86)\MICROSOFT VISUAL STUDIO\2019\COMMUNITY\VC\TOOLS\MSVC\14.29.30133\INCLUDE\VCRUNTIME_NEW_DEBUG.H
C:\PROGRAM FILES (X86)\MICROSOFT VISUAL STUDIO\2019\COMMUNITY\VC\TOOLS\MSVC\14.29.30133\INCLUDE\VCRUNTIME_NEW.H
C:\PROGRAM FILES (X86)\MICROSOFT VISUAL STUDIO\2019\COMMUNITY\VC\TOOLS\MSVC\14.29.30133\INCLUDE\CRTDEFS.H
C:\PROGRAM FILES (X86)\MICROSOFT VISUAL STUDIO\2019\COMMUNITY\VC\TOOLS\MSVC\14.29.30133\INCLUDE\USE_ANSI.H
C:\PROGRAM FILES (X86)\MICROSOFT VISUAL STUDIO\2019\COMMUNITY\VC\TOOLS\MSVC\14.29.30133\INCLUDE\CSTDLIB
C:\PROGRAM FILES (X86)\WINDOWS KITS\10\INCLUDE\10.0.19041.0\UCRT\MATH.H
C:\PROGRAM FILES (X86)\WINDOWS KITS\10\INCLUDE\10.0.19041.0\UCRT\CORECRT_MATH.H
C:\PROGRAM FILES (X86)\WINDOWS KITS\10\INCLUDE\10.0.19041.0\UCRT\STDLIB.H
C:\PROGRAM FILES (X86)\WINDOWS KITS\10\INCLUDE\10.0.19041.0\UCRT\CORECRT_MALLOC.H
C:\PROGRAM FILES (X86)\WINDOWS KITS\10\INCLUDE\10.0.19041.0\UCRT\CORECRT_SEARCH.H
C:\PROGRAM FILES (X86)\WINDOWS KITS\10\INCLUDE\10.0.19041.0\UCRT\STDDEF.H
C:\PROGRAM FILES (X86)\WINDOWS KITS\10\INCLUDE\10.0.19041.0\UCRT\CORECRT_WSTDLIB.H
C:\PROGRAM FILES (X86)\MICROSOFT VISUAL STUDIO\2019\COMMUNITY\VC\TOOLS\MSVC\14.29.30133\INCLUDE\XTR1COMMON
C:\PROGRAM FILES (X86)\MICROSOFT VISUAL STUDIO\2019\COMMUNITY\VC\TOOLS\MSVC\14.29.30133\INCLUDE\INTRIN0.H
C:\PROGRAM FILES (X86)\MICROSOFT VISUAL STUDIO\2019\COMMUNITY\VC\TOOLS\MSVC\14.29.30133\INCLUDE\INTRIN0.INL.H
C:\PROGRAM FILES (X86)\MICROSOFT VISUAL STUDIO\2019\COMMUNITY\VC\TOOLS\MSVC\14.29.30133\INCLUDE\CSTDIO
C:\PROGRAM FILES (X86)\WINDOWS KITS\10\INCLUDE\10.0.19041.0\UCRT\STDIO.H
C:\PROGRAM FILES (X86)\WINDOWS KITS\10\INCLUDE\10.0.19041.0\UCRT\CORECRT_WSTDIO.H
C:\PROGRAM FILES (X86)\WINDOWS KITS\10\INCLUDE\10.0.19041.0\UCRT\CORECRT_STDIO_CONFIG.H
C:\PROGRAM FILES (X86)\MICROSOFT VISUAL STUDIO\2019\COMMUNITY\VC\TOOLS\MSVC\14.29.30133\INCLUDE\ITERATOR
C:\PROGRAM FILES (X86)\MICROSOFT VISUAL STUDIO\2019\COMMUNITY\VC\TOOLS\MSVC\14.29.30133\INCLUDE\IOSFWD
C:\PROGRAM FILES (X86)\MICROSOFT VISUAL STUDIO\2019\COMMUNITY\VC\TOOLS\MSVC\14.29.30133\INCLUDE\CSTRING
C:\PROGRAM FILES (X86)\WINDOWS KITS\10\INCLUDE\10.0.19041.0\UCRT\STRING.H
C:\PROGRAM FILES (X86)\WINDOWS KITS\10\INCLUDE\10.0.19041.0\UCRT\CORECRT_MEMORY.H
C:\PROGRAM FILES (X86)\WINDOWS KITS\10\INCLUDE\10.0.19041.0\UCRT\CORECRT_MEMCPY_S.H
C:\PROGRAM FILES (X86)\WINDOWS KITS\10\INCLUDE\10.0.19041.0\UCRT\ERRNO.H
C:\PROGRAM FILES (X86)\MICROSOFT VISUAL STUDIO\2019\COMMUNITY\VC\TOOLS\MSVC\14.29.30133\INCLUDE\VCRUNTIME_STRING.H
C:\PROGRAM FILES (X86)\WINDOWS KITS\10\INCLUDE\10.0.19041.0\UCRT\CORECRT_WSTRING.H
C:\PROGRAM FILES (X86)\MICROSOFT VISUAL STUDIO\2019\COMMUNITY\VC\TOOLS\MSVC\14.29.30133\INCLUDE\CWCHAR
C:\PROGRAM FILES (X86)\WINDOWS KITS\10\INCLUDE\10.0.19041.0\UCRT\WCHAR.H
C:\PROGRAM FILES (X86)\WINDOWS KITS\10\INCLUDE\10.0.19041.0\UCRT\CORECRT_WCONIO.H
C:\PROGRAM FILES (X86)\WINDOWS KITS\10\INCLUDE\10.0.19041.0\UCRT\CORECRT_WCTYPE.H
C:\PROGRAM FILES (X86)\WINDOWS KITS\10\INCLUDE\10.0.19041.0\UCRT\CORECRT_WDIRECT.H
C:\PROGRAM FILES (X86)\WINDOWS KITS\10\INCLUDE\10.0.19041.0\UCRT\CORECRT_WIO.H
C:\PROGRAM FILES (X86)\WINDOWS KITS\10\INCLUDE\10.0.19041.0\UCRT\CORECRT_SHARE.H
C:\PROGRAM FILES (X86)\WINDOWS KITS\10\INCLUDE\10.0.19041.0\UCRT\CORECRT_WPROCESS.H
C:\PROGRAM FILES (X86)\WINDOWS KITS\10\INCLUDE\10.0.19041.0\UCRT\CORECRT_WTIME.H
C:\PROGRAM FILES (X86)\WINDOWS KITS\10\INCLUDE\10.0.19041.0\UCRT\SYS\STAT.H
C:\PROGRAM FILES (X86)\WINDOWS KITS\10\INCLUDE\10.0.19041.0\UCRT\SYS\TYPES.H
C:\PROGRAM FILES (X86)\MICROSOFT VISUAL STUDIO\2019\COMMUNITY\VC\TOOLS\MSVC\14.29.30133\INCLUDE\XSTDDEF
C:\PROGRAM FILES (X86)\MICROSOFT VISUAL STUDIO\2019\COMMUNITY\VC\TOOLS\MSVC\14.29.30133\INCLUDE\CSTDDEF
C:\PROGRAM FILES (X86)\MICROSOFT VISUAL STUDIO\2019\COMMUNITY\VC\TOOLS\MSVC\14.29.30133\INCLUDE\INITIALIZER_LIST
C:\PROGRAM FILES (X86)\MICROSOFT VISUAL STUDIO\2019\COMMUNITY\VC\TOOLS\MSVC\14.29.30133\INCLUDE\XUTILITY
C:\PROGRAM FILES (X86)\MICROSOFT VISUAL STUDIO\2019\COMMUNITY\VC\TOOLS\MSVC\14.29.30133\INCLUDE\UTILITY
C:\PROGRAM FILES (X86)\MICROSOFT VISUAL STUDIO\2019\COMMUNITY\VC\TOOLS\MSVC\14.29.30133\INCLUDE\TYPE_TRAITS
C:\PROGRAM FILES (X86)\MICROSOFT VISUAL STUDIO\2019\COMMUNITY\VC\TOOLS\MSVC\14.29.30133\INCLUDE\CSTDINT
C:\PROGRAM FILES (X86)\MICROSOFT VISUAL STUDIO\2019\COMMUNITY\VC\TOOLS\MSVC\14.29.30133\INCLUDE\STDINT.H
C:\PROGRAM FILES (X86)\MICROSOFT VISUAL STUDIO\2019\COMMUNITY\VC\TOOLS\MSVC\14.29.30133\INCLUDE\STREAMBUF
C:\PROGRAM FILES (X86)\MICROSOFT VISUAL STUDIO\2019\COMMUNITY\VC\TOOLS\MSVC\14.29.30133\INCLUDE\XIOSBASE
C:\PROGRAM FILES (X86)\WINDOWS KITS\10\INCLUDE\10.0.19041.0\UCRT\SHARE.H
C:\PROGRAM FILES (X86)\MICROSOFT VISUAL STUDIO\2019\COMMUNITY\VC\TOOLS\MSVC\14.29.30133\INCLUDE\SYSTEM_ERROR
C:\PROGRAM FILES (X86)\MICROSOFT VISUAL STUDIO\2019\COMMUNITY\VC\TOOLS\MSVC\14.29.30133\INCLUDE\__MSVC_SYSTEM_ERROR_ABI.HPP
C:\PROGRAM FILES (X86)\MICROSOFT VISUAL STUDIO\2019\COMMUNITY\VC\TOOLS\MSVC\14.29.30133\INCLUDE\CERRNO
C:\PROGRAM FILES (X86)\MICROSOFT VISUAL STUDIO\2019\COMMUNITY\VC\TOOLS\MSVC\14.29.30133\INCLUDE\STDEXCEPT
C:\PROGRAM FILES (X86)\MICROSOFT VISUAL STUDIO\2019\COMMUNITY\VC\TOOLS\MSVC\14.29.30133\INCLUDE\EXCEPTION
C:\PROGRAM FILES (X86)\WINDOWS KITS\10\INCLUDE\10.0.19041.0\UCRT\MALLOC.H
C:\PROGRAM FILES (X86)\MICROSOFT VISUAL STUDIO\2019\COMMUNITY\VC\TOOLS\MSVC\14.29.30133\INCLUDE\VCRUNTIME_EXCEPTION.H
C:\PROGRAM FILES (X86)\MICROSOFT VISUAL STUDIO\2019\COMMUNITY\VC\TOOLS\MSVC\14.29.30133\INCLUDE\EH.H
C:\PROGRAM FILES (X86)\WINDOWS KITS\10\INCLUDE\10.0.19041.0\UCRT\CORECRT_TERMINATE.H
C:\PROGRAM FILES (X86)\MICROSOFT VISUAL STUDIO\2019\COMMUNITY\VC\TOOLS\MSVC\14.29.30133\INCLUDE\XSTRING
C:\PROGRAM FILES (X86)\MICROSOFT VISUAL STUDIO\2019\COMMUNITY\VC\TOOLS\MSVC\14.29.30133\INCLUDE\XMEMORY
C:\PROGRAM FILES (X86)\MICROSOFT VISUAL STUDIO\2019\COMMUNITY\VC\TOOLS\MSVC\14.29.30133\INCLUDE\LIMITS
C:\PROGRAM FILES (X86)\MICROSOFT VISUAL STUDIO\2019\COMMUNITY\VC\TOOLS\MSVC\14.29.30133\INCLUDE\CFLOAT
C:\PROGRAM FILES (X86)\WINDOWS KITS\10\INCLUDE\10.0.19041.0\UCRT\FLOAT.H
C:\PROGRAM FILES (X86)\MICROSOFT VISUAL STUDIO\2019\COMMUNITY\VC\TOOLS\MSVC\14.29.30133\INCLUDE\ISA_AVAILABILITY.H
C:\PROGRAM FILES (X86)\MICROSOFT VISUAL STUDIO\2019\COMMUNITY\VC\TOOLS\MSVC\14.29.30133\INCLUDE\NEW
C:\PROGRAM FILES (X86)\MICROSOFT VISUAL STUDIO\2019\COMMUNITY\VC\TOOLS\MSVC\14.29.30133\INCLUDE\XATOMIC.H
C:\PROGRAM FILES (X86)\MICROSOFT VISUAL STUDIO\2019\COMMUNITY\VC\TOOLS\MSVC\14.29.30133\INCLUDE\XCALL_ONCE.H
C:\PROGRAM FILES (X86)\MICROSOFT VISUAL STUDIO\2019\COMMUNITY\VC\TOOLS\MSVC\14.29.30133\INCLUDE\XERRC.H
C:\PROGRAM FILES (X86)\MICROSOFT VISUAL STUDIO\2019\COMMUNITY\VC\TOOLS\MSVC\14.29.30133\INCLUDE\ATOMIC
C:\PROGRAM FILES (X86)\MICROSOFT VISUAL STUDIO\2019\COMMUNITY\VC\TOOLS\MSVC\14.29.30133\INCLUDE\XTHREADS.H
C:\PROGRAM FILES (X86)\MICROSOFT VISUAL STUDIO\2019\COMMUNITY\VC\TOOLS\MSVC\14.29.30133\INCLUDE\XTIMEC.H
C:\PROGRAM FILES (X86)\MICROSOFT VISUAL STUDIO\2019\COMMUNITY\VC\TOOLS\MSVC\14.29.30133\INCLUDE\CTIME
C:\PROGRAM FILES (X86)\WINDOWS KITS\10\INCLUDE\10.0.19041.0\UCRT\TIME.H
C:\PROGRAM FILES (X86)\MICROSOFT VISUAL STUDIO\2019\COMMUNITY\VC\TOOLS\MSVC\14.29.30133\INCLUDE\XLOCALE
C:\PROGRAM FILES (X86)\MICROSOFT VISUAL STUDIO\2019\COMMUNITY\VC\TOOLS\MSVC\14.29.30133\INCLUDE\MEMORY
C:\PROGRAM FILES (X86)\MICROSOFT VISUAL STUDIO\2019\COMMUNITY\VC\TOOLS\MSVC\14.29.30133\INCLUDE\TYPEINFO
C:\PROGRAM FILES (X86)\MICROSOFT VISUAL STUDIO\2019\COMMUNITY\VC\TOOLS\MSVC\14.29.30133\INCLUDE\VCRUNTIME_TYPEINFO.H
C:\PROGRAM FILES (X86)\MICROSOFT VISUAL STUDIO\2019\COMMUNITY\VC\TOOLS\MSVC\14.29.30133\INCLUDE\XFACET
C:\PROGRAM FILES (X86)\MICROSOFT VISUAL STUDIO\2019\COMMUNITY\VC\TOOLS\MSVC\14.29.30133\INCLUDE\XLOCINFO
C:\PROGRAM FILES (X86)\MICROSOFT VISUAL STUDIO\2019\COMMUNITY\VC\TOOLS\MSVC\14.29.30133\INCLUDE\XLOCINFO.H
C:\PROGRAM FILES (X86)\MICROSOFT VISUAL STUDIO\2019\COMMUNITY\VC\TOOLS\MSVC\14.29.30133\INCLUDE\CCTYPE
C:\PROGRAM FILES (X86)\WINDOWS KITS\10\INCLUDE\10.0.19041.0\UCRT\CTYPE.H
C:\PROGRAM FILES (X86)\MICROSOFT VISUAL STUDIO\2019\COMMUNITY\VC\TOOLS\MSVC\14.29.30133\INCLUDE\CLOCALE
C:\PROGRAM FILES (X86)\WINDOWS KITS\10\INCLUDE\10.0.19041.0\UCRT\LOCALE.H
C:\PROGRAM FILES (X86)\MICROSOFT VISUAL STUDIO\2019\COMMUNITY\VC\TOOLS\MSVC\14.29.30133\INCLUDE\FSTREAM
C:\PROGRAM FILES (X86)\MICROSOFT VISUAL STUDIO\2019\COMMUNITY\VC\TOOLS\MSVC\14.29.30133\INCLUDE\STRING
G:\USUN SE POTEM\MILIONERZY\PACKAGES\ALLEGRO.5.2.8\BUILD\NATIVE\INCLUDE\ALLEGRO5\ALLEGRO.H
G:\USUN SE POTEM\MILIONERZY\PACKAGES\ALLEGRO.5.2.8\BUILD\NATIVE\INCLUDE\ALLEGRO5\BASE.H
C:\PROGRAM FILES (X86)\MICROSOFT VISUAL STUDIO\2019\COMMUNITY\VC\TOOLS\MSVC\14.29.30133\INCLUDE\STDARG.H
G:\USUN SE POTEM\MILIONERZY\PACKAGES\ALLEGRO.5.2.8\BUILD\NATIVE\INCLUDE\ALLEGRO5\INTERNAL\ALCONFIG.H
G:\USUN SE POTEM\MILIONERZY\PACKAGES\ALLEGRO.5.2.8\BUILD\NATIVE\INCLUDE\ALLEGRO5\PLATFORM\ALPLATF.H
G:\USUN SE POTEM\MILIONERZY\PACKAGES\ALLEGRO.5.2.8\BUILD\NATIVE\INCLUDE\ALLEGRO5\PLATFORM\ALMSVC.H
C:\PROGRAM FILES (X86)\WINDOWS KITS\10\INCLUDE\10.0.19041.0\UCRT\IO.H
C:\PROGRAM FILES (X86)\WINDOWS KITS\10\INCLUDE\10.0.19041.0\UCRT\CORECRT_IO.H
C:\PROGRAM FILES (X86)\WINDOWS KITS\10\INCLUDE\10.0.19041.0\UCRT\FCNTL.H
C:\PROGRAM FILES (X86)\WINDOWS KITS\10\INCLUDE\10.0.19041.0\UCRT\DIRECT.H
G:\USUN SE POTEM\MILIONERZY\PACKAGES\ALLEGRO.5.2.8\BUILD\NATIVE\INCLUDE\ALLEGRO5\PLATFORM\ASTDINT.H
C:\PROGRAM FILES (X86)\WINDOWS KITS\10\INCLUDE\10.0.19041.0\UCRT\INTTYPES.H
G:\USUN SE POTEM\MILIONERZY\PACKAGES\ALLEGRO.5.2.8\BUILD\NATIVE\INCLUDE\ALLEGRO5\PLATFORM\ASTDBOOL.H
G:\USUN SE POTEM\MILIONERZY\PACKAGES\ALLEGRO.5.2.8\BUILD\NATIVE\INCLUDE\ALLEGRO5\ALTIME.H
G:\USUN SE POTEM\MILIONERZY\PACKAGES\ALLEGRO.5.2.8\BUILD\NATIVE\INCLUDE\ALLEGRO5\BITMAP.H
G:\USUN SE POTEM\MILIONERZY\PACKAGES\ALLEGRO.5.2.8\BUILD\NATIVE\INCLUDE\ALLEGRO5\COLOR.H
G:\USUN SE POTEM\MILIONERZY\PACKAGES\ALLEGRO.5.2.8\BUILD\NATIVE\INCLUDE\ALLEGRO5\BITMAP_DRAW.H
G:\USUN SE POTEM\MILIONERZY\PACKAGES\ALLEGRO.5.2.8\BUILD\NATIVE\INCLUDE\ALLEGRO5\BITMAP_IO.H
G:\USUN SE POTEM\MILIONERZY\PACKAGES\ALLEGRO.5.2.8\BUILD\NATIVE\INCLUDE\ALLEGRO5\FILE.H
G:\USUN SE POTEM\MILIONERZY\PACKAGES\ALLEGRO.5.2.8\BUILD\NATIVE\INCLUDE\ALLEGRO5\PATH.H
G:\USUN SE POTEM\MILIONERZY\PACKAGES\ALLEGRO.5.2.8\BUILD\NATIVE\INCLUDE\ALLEGRO5\UTF8.H
G:\USUN SE POTEM\MILIONERZY\PACKAGES\ALLEGRO.5.2.8\BUILD\NATIVE\INCLUDE\ALLEGRO5\BITMAP_LOCK.H
G:\USUN SE POTEM\MILIONERZY\PACKAGES\ALLEGRO.5.2.8\BUILD\NATIVE\INCLUDE\ALLEGRO5\BLENDER.H
G:\USUN SE POTEM\MILIONERZY\PACKAGES\ALLEGRO.5.2.8\BUILD\NATIVE\INCLUDE\ALLEGRO5\CLIPBOARD.H
G:\USUN SE POTEM\MILIONERZY\PACKAGES\ALLEGRO.5.2.8\BUILD\NATIVE\INCLUDE\ALLEGRO5\DISPLAY.H
G:\USUN SE POTEM\MILIONERZY\PACKAGES\ALLEGRO.5.2.8\BUILD\NATIVE\INCLUDE\ALLEGRO5\EVENTS.H
G:\USUN SE POTEM\MILIONERZY\PACKAGES\ALLEGRO.5.2.8\BUILD\NATIVE\INCLUDE\ALLEGRO5\CONFIG.H
G:\USUN SE POTEM\MILIONERZY\PACKAGES\ALLEGRO.5.2.8\BUILD\NATIVE\INCLUDE\ALLEGRO5\CPU.H
G:\USUN SE POTEM\MILIONERZY\PACKAGES\ALLEGRO.5.2.8\BUILD\NATIVE\INCLUDE\ALLEGRO5\DEBUG.H
C:\PROGRAM FILES (X86)\WINDOWS KITS\10\INCLUDE\10.0.19041.0\UCRT\ASSERT.H
G:\USUN SE POTEM\MILIONERZY\PACKAGES\ALLEGRO.5.2.8\BUILD\NATIVE\INCLUDE\ALLEGRO5\DRAWING.H
G:\USUN SE POTEM\MILIONERZY\PACKAGES\ALLEGRO.5.2.8\BUILD\NATIVE\INCLUDE\ALLEGRO5\ERROR.H
G:\USUN SE POTEM\MILIONERZY\PACKAGES\ALLEGRO.5.2.8\BUILD\NATIVE\INCLUDE\ALLEGRO5\FIXED.H
G:\USUN SE POTEM\MILIONERZY\PACKAGES\ALLEGRO.5.2.8\BUILD\NATIVE\INCLUDE\ALLEGRO5\FMATHS.H
G:\USUN SE POTEM\MILIONERZY\PACKAGES\ALLEGRO.5.2.8\BUILD\NATIVE\INCLUDE\ALLEGRO5\INLINE\FMATHS.INL
G:\USUN SE POTEM\MILIONERZY\PACKAGES\ALLEGRO.5.2.8\BUILD\NATIVE\INCLUDE\ALLEGRO5\FSHOOK.H
G:\USUN SE POTEM\MILIONERZY\PACKAGES\ALLEGRO.5.2.8\BUILD\NATIVE\INCLUDE\ALLEGRO5\FULLSCREEN_MODE.H
G:\USUN SE POTEM\MILIONERZY\PACKAGES\ALLEGRO.5.2.8\BUILD\NATIVE\INCLUDE\ALLEGRO5\HAPTIC.H
G:\USUN SE POTEM\MILIONERZY\PACKAGES\ALLEGRO.5.2.8\BUILD\NATIVE\INCLUDE\ALLEGRO5\JOYSTICK.H
G:\USUN SE POTEM\MILIONERZY\PACKAGES\ALLEGRO.5.2.8\BUILD\NATIVE\INCLUDE\ALLEGRO5\KEYBOARD.H
G:\USUN SE POTEM\MILIONERZY\PACKAGES\ALLEGRO.5.2.8\BUILD\NATIVE\INCLUDE\ALLEGRO5\KEYCODES.H
G:\USUN SE POTEM\MILIONERZY\PACKAGES\ALLEGRO.5.2.8\BUILD\NATIVE\INCLUDE\ALLEGRO5\MOUSE.H
G:\USUN SE POTEM\MILIONERZY\PACKAGES\ALLEGRO.5.2.8\BUILD\NATIVE\INCLUDE\ALLEGRO5\TOUCH_INPUT.H
G:\USUN SE POTEM\MILIONERZY\PACKAGES\ALLEGRO.5.2.8\BUILD\NATIVE\INCLUDE\ALLEGRO5\MEMORY.H
G:\USUN SE POTEM\MILIONERZY\PACKAGES\ALLEGRO.5.2.8\BUILD\NATIVE\INCLUDE\ALLEGRO5\MONITOR.H
G:\USUN SE POTEM\MILIONERZY\PACKAGES\ALLEGRO.5.2.8\BUILD\NATIVE\INCLUDE\ALLEGRO5\MOUSE_CURSOR.H
G:\USUN SE POTEM\MILIONERZY\PACKAGES\ALLEGRO.5.2.8\BUILD\NATIVE\INCLUDE\ALLEGRO5\RENDER_STATE.H
G:\USUN SE POTEM\MILIONERZY\PACKAGES\ALLEGRO.5.2.8\BUILD\NATIVE\INCLUDE\ALLEGRO5\SHADER.H
G:\USUN SE POTEM\MILIONERZY\PACKAGES\ALLEGRO.5.2.8\BUILD\NATIVE\INCLUDE\ALLEGRO5\TRANSFORMATIONS.H
G:\USUN SE POTEM\MILIONERZY\PACKAGES\ALLEGRO.5.2.8\BUILD\NATIVE\INCLUDE\ALLEGRO5\SYSTEM.H
G:\USUN SE POTEM\MILIONERZY\PACKAGES\ALLEGRO.5.2.8\BUILD\NATIVE\INCLUDE\ALLEGRO5\THREADS.H
G:\USUN SE POTEM\MILIONERZY\PACKAGES\ALLEGRO.5.2.8\BUILD\NATIVE\INCLUDE\ALLEGRO5\TIMER.H
G:\USUN SE POTEM\MILIONERZY\PACKAGES\ALLEGRO.5.2.8\BUILD\NATIVE\INCLUDE\ALLEGRO5\TLS.H
G:\USUN SE POTEM\MILIONERZY\PACKAGES\ALLEGRO.5.2.8\BUILD\NATIVE\INCLUDE\ALLEGRO5\ALCOMPAT.H
G:\USUN SE POTEM\MILIONERZY\PACKAGES\ALLEGRO.5.2.8\BUILD\NATIVE\INCLUDE\ALLEGRO5\PLATFORM\ALWIN.H
G:\USUN SE POTEM\MILIONERZY\PACKAGES\ALLEGRO.5.2.8\BUILD\NATIVE\INCLUDE\ALLEGRO5\ALLEGRO_FONT.H
G:\USUN SE POTEM\MILIONERZY\PACKAGES\ALLEGRO.5.2.8\BUILD\NATIVE\INCLUDE\ALLEGRO5\ALLEGRO_TTF.H
G:\USUN SE POTEM\MILIONERZY\PACKAGES\ALLEGRO.5.2.8\BUILD\NATIVE\INCLUDE\ALLEGRO5\ALLEGRO_IMAGE.H
